module gitlab.oit.duke.edu/devil-ops/clockworksctl

go 1.21.6

toolchain go1.22.2

require (
	github.com/charmbracelet/huh v0.4.2
	github.com/charmbracelet/huh/spinner v0.0.0-20240618200428-90406d79077d
	github.com/charmbracelet/lipgloss v0.11.0
	github.com/charmbracelet/log v0.4.0
	github.com/drewstinnett/gout-cobra v0.2.0
	github.com/drewstinnett/gout/v2 v2.3.0
	github.com/mitchellh/go-homedir v1.1.0
	github.com/sourcegraph/conc v0.3.0
	github.com/spf13/cobra v1.8.1
	github.com/spf13/viper v1.19.0
	github.com/stretchr/testify v1.9.0
	gitlab.oit.duke.edu/devil-ops/go-clockworks v1.11.1
)

require (
	github.com/araddon/dateparse v0.0.0-20210429162001-6b43995a97de // indirect
	github.com/atotto/clipboard v0.1.4 // indirect
	github.com/aymanbagabas/go-osc52/v2 v2.0.1 // indirect
	github.com/catppuccin/go v0.2.0 // indirect
	github.com/charmbracelet/bubbles v0.18.0 // indirect
	github.com/charmbracelet/bubbletea v0.26.5 // indirect
	github.com/charmbracelet/x/ansi v0.1.2 // indirect
	github.com/charmbracelet/x/exp/strings v0.0.0-20240621123014-31efdd8aba51 // indirect
	github.com/charmbracelet/x/input v0.1.2 // indirect
	github.com/charmbracelet/x/term v0.1.1 // indirect
	github.com/charmbracelet/x/windows v0.1.2 // indirect
	github.com/davecgh/go-spew v1.1.2-0.20180830191138-d8f796af33cc // indirect
	github.com/dustin/go-humanize v1.0.1 // indirect
	github.com/erikgeiser/coninput v0.0.0-20211004153227-1c3628e74d0f // indirect
	github.com/fsnotify/fsnotify v1.7.0 // indirect
	github.com/go-logfmt/logfmt v0.6.0 // indirect
	github.com/google/go-querystring v1.1.0 // indirect
	github.com/hashicorp/hcl v1.0.0 // indirect
	github.com/inconshreveable/mousetrap v1.1.0 // indirect
	github.com/jtolds/gls v4.20.0+incompatible // indirect
	github.com/lucasb-eyer/go-colorful v1.2.0 // indirect
	github.com/magiconair/properties v1.8.7 // indirect
	github.com/mattn/go-isatty v0.0.20 // indirect
	github.com/mattn/go-localereader v0.0.1 // indirect
	github.com/mattn/go-runewidth v0.0.15 // indirect
	github.com/mitchellh/mapstructure v1.5.0 // indirect
	github.com/muesli/ansi v0.0.0-20230316100256-276c6243b2f6 // indirect
	github.com/muesli/cancelreader v0.2.2 // indirect
	github.com/muesli/termenv v0.15.2 // indirect
	github.com/pelletier/go-toml/v2 v2.2.2 // indirect
	github.com/pmezard/go-difflib v1.0.1-0.20181226105442-5d4384ee4fb2 // indirect
	github.com/rivo/uniseg v0.4.7 // indirect
	github.com/sagikazarmark/locafero v0.6.0 // indirect
	github.com/sagikazarmark/slog-shim v0.1.0 // indirect
	github.com/spf13/afero v1.11.0 // indirect
	github.com/spf13/cast v1.6.0 // indirect
	github.com/spf13/pflag v1.0.5 // indirect
	github.com/subosito/gotenv v1.6.0 // indirect
	github.com/xo/terminfo v0.0.0-20220910002029-abceb7e1c41e // indirect
	go.uber.org/multierr v1.11.0 // indirect
	golang.org/x/exp v0.0.0-20240613232115-7f521ea00fb8 // indirect
	golang.org/x/sync v0.7.0 // indirect
	golang.org/x/sys v0.21.0 // indirect
	golang.org/x/text v0.16.0 // indirect
	gopkg.in/ini.v1 v1.67.0 // indirect
	gopkg.in/yaml.v3 v3.0.1 // indirect
	moul.io/http2curl v1.0.0 // indirect
)
